Data preparation
…
- And one more reminder: Rstudio shortcut for the pipe is Ctrl+Shift+M
- Check more shortcuts at Tools -> Keyboard Shortcuts Help.

---
#Tibbles: A (new) way to organize data in R

### It never changes an input's type (i.e., no more `stringsAsFactors = FALSE`!).

```r
tibble(x = letters)
```

```
## # A tibble: 26 x 1
##    x    
##    <chr>
##  1 a    
##  2 b    
##  3 c    
##  4 d    
##  5 e    
##  6 f    
##  7 g    
##  8 h    
##  9 i    
## 10 j    
## # … with 16 more rows
```
…
---
# Tibbles vs data frames

The key differences between tibbles and data frames are: printing, subsetting, and recycling rules.

---
## Printing
When you print a tibble, it only shows the first ten rows and all the columns that fit on one screen. It also prints an abbreviated description of the column type:

```r
tibble(x = 1:1000, y = rep("a", 1000), z = sample(c(T,F),1000, rep=T))
```

```
## # A tibble: 1,000 x 3
##        x y     z    
##    <int> <chr> <lgl>
##  1     1 a     TRUE 
##  2     2 a     FALSE
##  3     3 a     TRUE 
##  4     4 a     FALSE
##  5     5 a     FALSE
##  6     6 a     TRUE 
##  7     7 a     TRUE 
##  8     8 a     FALSE
##  9     9 a     TRUE 
## 10    10 a     TRUE 
## # … with 990 more rows
```
…
```r
data
```

```
## # A tibble: 129,971 x 14
##       X1 country description designation points price province region_1 region_2
##    <dbl> <chr>   <chr>       <chr>        <dbl> <dbl> <chr>    <chr>    <chr>   
##  1     0 Italy   Aromas inc… Vulkà Bian…     87    NA Sicily … Etna     <NA>    
##  2     1 Portug… This is ri… Avidagos        87    15 Douro    <NA>     <NA>    
##  3     2 US      Tart and s… <NA>            87    14 Oregon   Willame… Willame…
##  4     3 US      Pineapple … Reserve La…     87    13 Michigan Lake Mi… <NA>    
##  5     4 US      Much like … Vintner's …     87    65 Oregon   Willame… Willame…
##  6     5 Spain   Blackberry… Ars In Vit…     87    15 Norther… Navarra  <NA>    
##  7     6 Italy   Here's a b… Belsito         87    16 Sicily … Vittoria <NA>    
##  8     7 France  This dry a… <NA>            87    24 Alsace   Alsace   <NA>    
##  9     8 Germany Savory dri… Shine           87    12 Rheinhe… <NA>     <NA>    
## 10     9 France  This has g… Les Natures     87    27 Alsace   Alsace   <NA>    
## # … with 129,961 more rows, and 5 more variables: taster_name <chr>,
## #   taster_twitter_handle <chr>, title <chr>, variety <chr>, winery <chr>
```
…
```r
View(data)
```

---
## The select() verb:

```r
data %>% 
  select(country, points, price, title:winery)
```

```
## # A tibble: 129,971 x 6
##    country  points price title                                    variety      winery     
##    <chr>     <dbl> <dbl> <chr>                                    <chr>        <chr>      
##  1 Italy        87    NA Nicosia 2013 Vulkà Bianco  (Etna)        White Blend  Nicosia    
##  2 Portugal     87    15 Quinta dos Avidagos 2011 Avidagos Red (… Portuguese … Quinta dos…
##  3 US           87    14 Rainstorm 2013 Pinot Gris (Willamette V… Pinot Gris   Rainstorm  
##  4 US           87    13 St. Julian 2013 Reserve Late Harvest Ri… Riesling     St. Julian 
##  5 US           87    65 Sweet Cheeks 2012 Vintner's Reserve Wil… Pinot Noir   Sweet Chee…
##  6 Spain        87    15 Tandem 2011 Ars In Vitro Tempranillo-Me… Tempranillo… Tandem     
##  7 Italy        87    16 Terre di Giurfo 2013 Belsito Frappato (… Frappato     Terre di G…
##  8 France       87    24 Trimbach 2012 Gewurztraminer (Alsace)    Gewürztrami… Trimbach   
##  9 Germany      87    12 Heinz Eifel 2013 Shine Gewürztraminer (… Gewürztrami… Heinz Eifel
## 10 France       87    27 Jean-Baptiste Adam 2012 Les Natures Pin… Pinot Gris   Jean-Bapti…
## # … with 129,961 more rows
```
…
- `everything()`: selects all variables.

- To drop variables, use `-variable`

---
## Some examples with select()

```r
data <- data %>% 
  select(-X1)
data
```

```
## # A tibble: 129,971 x 13
##    country description designation points price province region_1 region_2 taster_name
##    <chr>   <chr>       <chr>        <dbl> <dbl> <chr>    <chr>    <chr>    <chr>      
##  1 Italy   Aromas inc… Vulkà Bian…     87    NA Sicily … Etna     <NA>     Kerin O’Ke…
##  2 Portug… This is ri… Avidagos        87    15 Douro    <NA>     <NA>     Roger Voss 
##  3 US      Tart and s… <NA>            87    14 Oregon   Willame… Willame… Paul Gregu…
##  4 US      Pineapple … Reserve La…     87    13 Michigan Lake Mi… <NA>     Alexander …
##  5 US      Much like … Vintner's …     87    65 Oregon   Willame… Willame… Paul Gregu…
##  6 Spain   Blackberry… Ars In Vit…     87    15 Norther… Navarra  <NA>     Michael Sc…
##  7 Italy   Here's a b… Belsito         87    16 Sicily … Vittoria <NA>     Kerin O’Ke…
##  8 France  This dry a… <NA>            87    24 Alsace   Alsace   <NA>     Roger Voss 
##  9 Germany Savory dri… Shine           87    12 Rheinhe… <NA>     <NA>     Anna Lee C…
## 10 France  This has g… Les Natures     87    27 Alsace   Alsace   <NA>     Roger Voss 
## # … with 129,961 more rows, and 4 more variables: taster_twitter_handle <chr>,
## #   title <chr>, variety <chr>, winery <chr>
```

---
## Some examples with select()

```r
data %>% 
  select(country:points)
```

```
## # A tibble: 129,971 x 4
##    country  description                                      designation            points
##    <chr>    <chr>                                            <chr>                   <dbl>
##  1 Italy    Aromas include tropical fruit, broom, brimstone… Vulkà Bianco               87
##  2 Portugal This is ripe and fruity, a wine that is smooth … Avidagos                   87
##  3 US       Tart and snappy, the flavors of lime flesh and … <NA>                       87
##  4 US       Pineapple rind, lemon pith and orange blossom s… Reserve Late Harvest       87
##  5 US       Much like the regular bottling from 2012, this … Vintner's Reserve Wil…     87
##  6 Spain    Blackberry and raspberry aromas show a typical … Ars In Vitro               87
##  7 Italy    Here's a bright, informal red that opens with a… Belsito                    87
##  8 France   This dry and restrained wine offers spice in pr… <NA>                       87
##  9 Germany  Savory dried thyme notes accent sunnier flavors… Shine                      87
## 10 France   This has great depth of flavor with its fresh a… Les Natures                87
## # … with 129,961 more rows
```

---
## Some examples with select()

```r
data %>% 
  select(starts_with("taster"))
```

```
## # A tibble: 129,971 x 2
##    taster_name        taster_twitter_handle
##    <chr>              <chr>                
##  1 Kerin O’Keefe      @kerinokeefe         
##  2 Roger Voss         @vossroger           
##  3 Paul Gregutt       @paulgwine           
##  4 Alexander Peartree <NA>                 
##  5 Paul Gregutt       @paulgwine           
##  6 Michael Schachner  @wineschach          
##  7 Kerin O’Keefe      @kerinokeefe         
##  8 Roger Voss         @vossroger           
##  9 Anna Lee C. Iijima <NA>                 
## 10 Roger Voss         @vossroger           
## # … with 129,961 more rows
```

---
## Some examples with select()

```r
data %>% 
  select(contains("twitter"))
```

```
## # A tibble: 129,971 x 1
##    taster_twitter_handle
##    <chr>                
##  1 @kerinokeefe         
##  2 @vossroger           
##  3 @paulgwine           
##  4 <NA>                 
##  5 @paulgwine           
##  6 @wineschach          
##  7 @kerinokeefe         
##  8 @vossroger           
##  9 <NA>                 
## 10 @vossroger           
## # … with 129,961 more rows
```
…
---
## Renaming
With `select()` we can rename variables but those not mentioned are dropped

```r
data %>% select(taster_twitter = taster_twitter_handle)
```

```
## # A tibble: 129,971 x 1
##    taster_twitter
##    <chr>         
##  1 @kerinokeefe  
##  2 @vossroger    
##  3 @paulgwine    
##  4 <NA>          
##  5 @paulgwine    
##  6 @wineschach   
##  7 @kerinokeefe  
##  8 @vossroger    
##  9 <NA>          
## 10 @vossroger    
## # … with 129,961 more rows
```

---
## The rename() verb
Using `rename()` we can keep all variables

```r
data %>% rename(taster_twitter = taster_twitter_handle)
```

```
## # A tibble: 129,971 x 13
##    country description designation points price province region_1 region_2 taster_name
##    <chr>   <chr>       <chr>        <dbl> <dbl> <chr>    <chr>    <chr>    <chr>      
##  1 Italy   Aromas inc… Vulkà Bian…     87    NA Sicily … Etna     <NA>     Kerin O’Ke…
##  2 Portug… This is ri… Avidagos        87    15 Douro    <NA>     <NA>     Roger Voss 
##  3 US      Tart and s… <NA>            87    14 Oregon   Willame… Willame… Paul Gregu…
##  4 US      Pineapple … Reserve La…     87    13 Michigan Lake Mi… <NA>     Alexander …
##  5 US      Much like … Vintner's …     87    65 Oregon   Willame… Willame… Paul Gregu…
##  6 Spain   Blackberry… Ars In Vit…     87    15 Norther… Navarra  <NA>     Michael Sc…
##  7 Italy   Here's a b… Belsito         87    16 Sicily … Vittoria <NA>     Kerin O’Ke…
##  8 France  This dry a… <NA>            87    24 Alsace   Alsace   <NA>     Roger Voss 
##  9 Germany Savory dri… Shine           87    12 Rheinhe… <NA>     <NA>     Anna Lee C…
## 10 France  This has g… Les Natures     87    27 Alsace   Alsace   <NA>     Roger Voss 
## # … with 129,961 more rows, and 4 more variables: taster_twitter <chr>, title <chr>,
## #   variety <chr>, winery <chr>
```
…
- Verbs suffixed with _if() apply an operation on the subset of variables for which a predicate function returns TRUE. Instead of a predicate function, you can also supply a logical vector.

---
background-image: url(img/scoped.gif)

---
# Example

```r
data %>% select_if(is_numeric)
```

```
## # A tibble: 129,971 x 2
##    points price
##     <dbl> <dbl>
##  1     87    NA
##  2     87    15
##  3     87    14
##  4     87    13
##  5     87    65
##  6     87    15
##  7     87    16
##  8     87    24
##  9     87    12
## 10     87    27
## # … with 129,961 more rows
```
…
---
## The distinct() verb

```r
data %>% 
  select(country, province) %>% 
  distinct()
```

```
## # A tibble: 426 x 2
##    country   province         
##    <chr>     <chr>            
##  1 Italy     Sicily & Sardinia
##  2 Portugal  Douro            
##  3 US        Oregon           
##  4 US        Michigan         
##  5 Spain     Northern Spain   
##  6 France    Alsace           
##  7 Germany   Rheinhessen      
##  8 US        California       
##  9 Germany   Mosel            
## 10 Argentina Other            
## # … with 416 more rows
```
…
---
## Equivalently, we can use the transmute() verb:

```r
data %>% 
  transmute(price_per_point = price/points)
```

```
## # A tibble: 129,971 x 1
##    price_per_point
##              <dbl>
##  1          NA    
##  2           0.172
##  3           0.161
##  4           0.149
##  5           0.747
##  6           0.172
##  7           0.184
##  8           0.276
##  9           0.138
## 10           0.310
## # … with 129,961 more rows
```

---
## mutate example: Logical expressions

```r
data <- data %>% 
  mutate(price_range = ifelse(price_per_point>mean(price_per_point, na.rm=T),"High","Low"))

data %>%
  select(price_range, price_per_point)
```

```
## # A tibble: 129,971 x 2
##    price_range price_per_point
##    <chr>                 <dbl>
##  1 <NA>                 NA    
##  2 Low                   0.172
##  3 Low                   0.161
##  4 Low                   0.149
##  5 High                  0.747
##  6 Low                   0.172
##  7 Low                   0.184
##  8 Low                   0.276
##  9 Low                   0.138
## 10 Low                   0.310
## # … with 129,961 more rows
```

---
## What if we want to transform more than one variable at a time?

```r
data %>% 
  mutate_if(is.numeric, list(~./100)) %>% 
  select_if(is.numeric)
```

```
## # A tibble: 129,971 x 4
##    points price price_per_point   ppp2
##     <dbl> <dbl>           <dbl>  <dbl>
##  1   0.87 NA           NA       NA    
##  2   0.87  0.15         0.00172  0.172
##  3   0.87  0.14         0.00161  0.161
##  4   0.87  0.13         0.00149  0.149
##  5   0.87  0.65         0.00747  0.747
##  6   0.87  0.15         0.00172  0.172
##  7   0.87  0.16         0.00184  0.184
##  8   0.87  0.24         0.00276  0.276
##  9   0.87  0.12         0.00138  0.138
## 10   0.87  0.27         0.00310  0.310
## # … with 129,961 more rows
```

---
## The filter() verb

```r
data %>% 
  filter(country=="Chile")
```

```
## # A tibble: 4,472 x 16
##    country description designation points price province region_1 region_2 taster_name
##    <chr>   <chr>       <chr>        <dbl> <dbl> <chr>    <chr>    <chr>    <chr>      
##  1 Chile   White flow… Estate          86    15 Colchag… <NA>     <NA>     Michael Sc…
##  2 Chile   A berry ar… <NA>            86     9 Maule V… <NA>     <NA>     Michael Sc…
##  3 Chile   This is mu… Gran Reser…     85    22 Colchag… <NA>     <NA>     Michael Sc…
##  4 Chile   Lightly he… Reserve         85    13 Maipo V… <NA>     <NA>     Michael Sc…
##  5 Chile   Caramelize… Special Re…     86    12 Rapel V… <NA>     <NA>     Michael Sc…
##  6 Chile   A bright n… Single Vin…     87    18 Leyda V… <NA>     <NA>     Michael Sc…
##  7 Chile   This blend… Condesa Re…     91    29 Aconcag… <NA>     <NA>     Michael Sc…
##  8 Chile   Dry, briar… 20 Barrels      91    32 Maipo V… <NA>     <NA>     Michael Sc…
##  9 Chile   Dry, spicy… The 7th Ge…     91    20 Loncomi… <NA>     <NA>     Michael Sc…
## 10 Chile   Haven't se… Unusual Ca…     88    50 Maipo V… <NA>     <NA>     Michael Sc…
## # … with 4,462 more rows, and 7 more variables: taster_twitter_handle <chr>, title <chr>,
## #   variety <chr>, winery <chr>, price_per_point <dbl>, ppp2 <dbl>, price_range <chr>
```

---
## Chile is great, but how many possible options do we have?

```r
data %>% 
  select(country) %>% 
  distinct()
```

```
## # A tibble: 44 x 1
##    country  
##    <chr>    
##  1 Italy    
##  2 Portugal 
##  3 US       
##  4 Spain    
##  5 France   
##  6 Germany  
##  7 Argentina
##  8 Chile    
##  9 Australia
## 10 Austria  
## # … with 34 more rows
```
…
---
## The filter() verb

```r
data %>% 
  filter(country == "Chile",
         price_range == "High")
```

```
## # A tibble: 441 x 16
##    country description designation points price province region_1 region_2 taster_name
##    <chr>   <chr>       <chr>        <dbl> <dbl> <chr>    <chr>    <chr>    <chr>      
##  1 Chile   Haven't se… Unusual Ca…     88    50 Maipo V… <NA>     <NA>     Michael Sc…
##  2 Chile   Mildly min… Gran Arauc…     86    35 Colchag… <NA>     <NA>     Michael Sc…
##  3 Chile   Gritty, he… Costa           83    35 Colchag… <NA>     <NA>     Michael Sc…
##  4 Chile   Gê is one … Gê              92    92 Colchag… <NA>     <NA>     Michael Sc…
##  5 Chile   The nose i… Terrunyo V…     92    38 Maipo V… <NA>     <NA>     Michael Sc…
##  6 Chile   There's a … VSC             92    40 Cachapo… <NA>     <NA>     Michael Sc…
##  7 Chile   Oak, resin… Axel Prime…     90    40 Colchag… <NA>     <NA>     Michael Sc…
##  8 Chile   A bit mulc… Manso de V…     88    42 Central… <NA>     <NA>     Michael Sc…
##  9 Chile   Smoky, rub… Catalina        88    40 Peumo    <NA>     <NA>     Michael Sc…
## 10 Chile   A lot of o… Microterro…     88    49 Colchag… <NA>     <NA>     Michael Sc…
## # … with 431 more rows, and 7 more variables: taster_twitter_handle <chr>, title <chr>,
## #   variety <chr>, winery <chr>, price_per_point <dbl>, ppp2 <dbl>, price_range <chr>
```

---
## The filter() verb

```r
data %>% 
  filter(country == "Chile",
         price > 20)
```

```
## # A tibble: 1,097 x 16
##    country description designation points price province region_1 region_2 taster_name
##    <chr>   <chr>       <chr>        <dbl> <dbl> <chr>    <chr>    <chr>    <chr>      
##  1 Chile   This is mu… Gran Reser…     85    22 Colchag… <NA>     <NA>     Michael Sc…
##  2 Chile   This blend… Condesa Re…     91    29 Aconcag… <NA>     <NA>     Michael Sc…
##  3 Chile   Dry, briar… 20 Barrels      91    32 Maipo V… <NA>     <NA>     Michael Sc…
##  4 Chile   Haven't se… Unusual Ca…     88    50 Maipo V… <NA>     <NA>     Michael Sc…
##  5 Chile   Mildly min… Gran Arauc…     86    35 Colchag… <NA>     <NA>     Michael Sc…
##  6 Chile   Gritty, he… Costa           83    35 Colchag… <NA>     <NA>     Michael Sc…
##  7 Chile   Baked blue… 20 Barrels…     91    35 Colchag… <NA>     <NA>     Michael Sc…
##  8 Chile   Jammy berr… Cuvée Alex…     91    24 Colchag… <NA>     <NA>     Michael Sc…
##  9 Chile   Earthy red… Millantu        90    25 Maipo V… <NA>     <NA>     Michael Sc…
## 10 Chile   Despite sh… Éclat Vign…     90    35 Maule V… <NA>     <NA>     Michael Sc…
## # … with 1,087 more rows, and 7 more variables: taster_twitter_handle <chr>, title <chr>,
## #   variety <chr>, winery <chr>, price_per_point <dbl>, ppp2 <dbl>, price_range <chr>
```
…
---
## Grouped operations: group_by()

```r
data %>% 
  group_by(country)
```

```
## # A tibble: 129,971 x 16
## # Groups:   country [44]
##    country description designation points price province region_1 region_2 taster_name
##    <chr>   <chr>       <chr>        <dbl> <dbl> <chr>    <chr>    <chr>    <chr>      
##  1 Italy   Aromas inc… Vulkà Bian…     87    NA Sicily … Etna     <NA>     Kerin O’Ke…
##  2 Portug… This is ri… Avidagos        87    15 Douro    <NA>     <NA>     Roger Voss 
##  3 US      Tart and s… <NA>            87    14 Oregon   Willame… Willame… Paul Gregu…
##  4 US      Pineapple … Reserve La…     87    13 Michigan Lake Mi… <NA>     Alexander …
##  5 US      Much like … Vintner's …     87    65 Oregon   Willame… Willame… Paul Gregu…
##  6 Spain   Blackberry… Ars In Vit…     87    15 Norther… Navarra  <NA>     Michael Sc…
##  7 Italy   Here's a b… Belsito         87    16 Sicily … Vittoria <NA>     Kerin O’Ke…
##  8 France  This dry a… <NA>            87    24 Alsace   Alsace   <NA>     Roger Voss 
##  9 Germany Savory dri… Shine           87    12 Rheinhe… <NA>     <NA>     Anna Lee C…
## 10 France  This has g… Les Natures     87    27 Alsace   Alsace   <NA>     Roger Voss 
## # … with 129,961 more rows, and 7 more variables: taster_twitter_handle <chr>,
## #   title <chr>, variety <chr>, winery <chr>, price_per_point <dbl>, ppp2 <dbl>,
## #   price_range <chr>
```
---
## group_by() is useful when combined with the verbs:

```r
data %>% 
  group_by(country) %>% 
  summarise(mean_price = mean(price, na.rm = T))
```

```
## `summarise()` ungrouping output (override with `.groups` argument)
```

```
## # A tibble: 44 x 2
##    country                mean_price
##    <chr>                       <dbl>
##  1 Argentina                    24.5
##  2 Armenia                      14.5
##  3 Australia                    35.4
##  4 Austria                      30.8
##  5 Bosnia and Herzegovina       12.5
##  6 Brazil                       23.8
##  7 Bulgaria                     14.6
##  8 Canada                       35.7
##  9 Chile                        20.8
## 10 China                        18  
## # … with 34 more rows
```
…
